[ {
  "name" : "youtube",
  "version" : "2.7",
  "artifactType" : "PREFAB",
  "artifactDependencyList" : null
}, {
  "name" : "material",
  "version" : "3.9",
  "artifactType" : "THEME",
  "artifactDependencyList" : null
} ]